{
  "project_info": {
    "project_number": "1007516135111",
    "project_id": "cmu-peddy-paper",
    "storage_bucket": "cmu-peddy-paper.appspot.com"
  },
  "client": [
    {
      "client_info": {
        "mobilesdk_app_id": "1:1007516135111:android:4d21c6354b913f7a7c18e2",
        "android_client_info": {
          "package_name": "pt.ipp.estg.peddypapper"
        }
      },
      "oauth_client": [],
      "api_key": [
        {
          "current_key": "AIzaSyBaf0w80Q7kG-NEdqs8VubJQkSXSjNkmiI"
        }
      ],
      "services": {
        "appinvite_service": {
          "other_platform_oauth_client": []
        }
      }
    }
  ],
  "configuration_version": "1"
}